{
  "name": "ButtonColorMtx",
  "fields": [
    {
      "fieldName": "mtxColor",
      "fieldType": "String",
      "fieldValidateRules": ["required"]
    },
    {
      "fieldName": "price",
      "fieldType": "Integer",
      "fieldValidateRules": ["required"]
    },
    {
      "fieldName": "available",
      "fieldType": "Boolean",
      "fieldValidateRules": ["required"]
    },
    {
      "fieldName": "timeLimit",
      "fieldType": "Double"
    },
    {
      "fieldName": "pointsRequired",
      "fieldType": "Long"
    },
    {
      "fieldName": "locked",
      "fieldType": "Boolean"
    }
  ],
  "relationships": [],
  "entityTableName": "button_color_mtx",
  "dto": "no",
  "pagination": "no",
  "service": "serviceClass",
  "jpaMetamodelFiltering": false,
  "fluentMethods": true,
  "readOnly": false,
  "embedded": false,
  "applications": ["apiGateway", "mtxStoreService"],
  "microserviceName": "mtxStoreService",
  "clientRootFolder": "mtxStoreService",
  "databaseType": "sql",
  "changelogDate": "20210522084642"
}
