{
  "name": "OwnedButtonColorMtx",
  "fields": [
    {
      "fieldName": "userName",
      "fieldType": "String",
      "fieldValidateRules": ["required"]
    },
    {
      "fieldName": "mtxId",
      "fieldType": "Long",
      "fieldValidateRules": ["required"]
    }
  ],
  "relationships": [],
  "entityTableName": "owned_button_color_mtx",
  "dto": "no",
  "pagination": "no",
  "service": "serviceClass",
  "jpaMetamodelFiltering": false,
  "fluentMethods": true,
  "readOnly": false,
  "embedded": false,
  "applications": ["apiGateway", "inventoryService"],
  "microserviceName": "inventoryService",
  "clientRootFolder": "inventoryService",
  "databaseType": "sql",
  "changelogDate": "20210411173533"
}
