{
  "name": "UserCount",
  "fields": [
    {
      "fieldName": "creationTime",
      "fieldType": "Instant",
      "fieldValidateRules": ["required"]
    },
    {
      "fieldName": "userCount",
      "fieldType": "Long",
      "fieldValidateRules": ["required"]
    }
  ],
  "relationships": [],
  "entityTableName": "user_count",
  "dto": "no",
  "pagination": "no",
  "service": "serviceClass",
  "jpaMetamodelFiltering": false,
  "fluentMethods": true,
  "readOnly": false,
  "embedded": false,
  "applications": ["apiGateway", "statisticService"],
  "microserviceName": "statisticService",
  "clientRootFolder": "statisticService",
  "databaseType": "sql",
  "changelogDate": "20210411173033"
}
