{
  "name": "PointOption",
  "fields": [
    {
      "fieldName": "pointAmount",
      "fieldType": "Integer",
      "fieldValidateRules": ["required"]
    },
    {
      "fieldName": "price",
      "fieldType": "Double",
      "fieldValidateRules": ["required"]
    },
    {
      "fieldName": "available",
      "fieldType": "Boolean",
      "fieldValidateRules": ["required"]
    }
  ],
  "relationships": [
    {
      "relationshipType": "one-to-many",
      "otherEntityName": "paymentInfo",
      "otherEntityRelationshipName": "pointOption",
      "relationshipName": "paymentInfo"
    }
  ],
  "entityTableName": "point_option",
  "dto": "no",
  "pagination": "no",
  "service": "serviceClass",
  "jpaMetamodelFiltering": false,
  "fluentMethods": true,
  "readOnly": false,
  "embedded": false,
  "applications": ["apiGateway", "paymentService"],
  "microserviceName": "paymentService",
  "clientRootFolder": "paymentService",
  "databaseType": "sql",
  "changelogDate": "20210522084742"
}
