{
  "name": "OwnedMtxPoints",
  "fields": [
    {
      "fieldName": "userName",
      "fieldType": "String",
      "fieldValidateRules": ["required"]
    },
    {
      "fieldName": "mtxPoints",
      "fieldType": "Integer",
      "fieldValidateRules": ["required"]
    }
  ],
  "relationships": [],
  "entityTableName": "owned_mtx_points",
  "dto": "no",
  "pagination": "no",
  "service": "serviceClass",
  "jpaMetamodelFiltering": false,
  "fluentMethods": true,
  "readOnly": false,
  "embedded": false,
  "applications": ["apiGateway", "inventoryService"],
  "microserviceName": "inventoryService",
  "clientRootFolder": "inventoryService",
  "databaseType": "sql",
  "changelogDate": "20210411173133"
}
